%YAML 1.1
%TAG !u! tag:unity3d.com,2011:
--- !u!1 &2240168262919642858
GameObject:
  m_ObjectHideFlags: 0
  m_CorrespondingSourceObject: {fileID: 0}
  m_PrefabInstance: {fileID: 0}
  m_PrefabAsset: {fileID: 0}
  serializedVersion: 6
  m_Component:
  - component: {fileID: 2233852696788200456}
  - component: {fileID: 2262652675957639178}
  - component: {fileID: 2252530682738234408}
  - component: {fileID: 2238329832479026227}
  - component: {fileID: 2238329832479026188}
  m_Layer: 0
  m_Name: Light
  m_TagString: Untagged
  m_Icon: {fileID: 0}
  m_NavMeshLayer: 0
  m_StaticEditorFlags: 0
  m_IsActive: 1
--- !u!4 &2233852696788200456
Transform:
  m_ObjectHideFlags: 0
  m_CorrespondingSourceObject: {fileID: 0}
  m_PrefabInstance: {fileID: 0}
  m_PrefabAsset: {fileID: 0}
  m_GameObject: {fileID: 2240168262919642858}
  m_LocalRotation: {x: -0.7071068, y: -0, z: -0, w: 0.7071067}
  m_LocalPosition: {x: -6.1000004, y: -0.3405571, z: 173.68}
  m_LocalScale: {x: 173.67001, y: 173.66992, z: 173.66992}
  m_Children: []
  m_Father: {fileID: 0}
  m_RootOrder: 0
  m_LocalEulerAnglesHint: {x: 0, y: 0, z: 0}
--- !u!33 &2262652675957639178
MeshFilter:
  m_ObjectHideFlags: 0
  m_CorrespondingSourceObject: {fileID: 0}
  m_PrefabInstance: {fileID: 0}
  m_PrefabAsset: {fileID: 0}
  m_GameObject: {fileID: 2240168262919642858}
  m_Mesh: {fileID: 4300000, guid: 93b7e9a763b4d7944938ea7824810aa6, type: 3}
--- !u!23 &2252530682738234408
MeshRenderer:
  m_ObjectHideFlags: 0
  m_CorrespondingSourceObject: {fileID: 0}
  m_PrefabInstance: {fileID: 0}
  m_PrefabAsset: {fileID: 0}
  m_GameObject: {fileID: 2240168262919642858}
  m_Enabled: 1
  m_CastShadows: 1
  m_ReceiveShadows: 1
  m_DynamicOccludee: 1
  m_MotionVectors: 1
  m_LightProbeUsage: 1
  m_ReflectionProbeUsage: 1
  m_RayTracingMode: 2
  m_RayTraceProcedural: 0
  m_RenderingLayerMask: 1
  m_RendererPriority: 0
  m_Materials:
  - {fileID: 2100000, guid: ab25e7630fa165b4099230ee95e91131, type: 2}
  - {fileID: 2100000, guid: 0414ceb8a1b2e2545b10709a55723d88, type: 2}
  - {fileID: 2100000, guid: 7be5e417b52fd834280f56f025a91e5e, type: 2}
  - {fileID: 2100000, guid: 510f1a4c405d15b44836b4cd601a8d6c, type: 2}
  - {fileID: 2100000, guid: 25cba0c6a3b08d5468d1a6db26100cee, type: 2}
  - {fileID: 2100000, guid: 7be5e417b52fd834280f56f025a91e5e, type: 2}
  - {fileID: 2100000, guid: 749169b54d08d824e828e6b055ae52d9, type: 2}
  m_StaticBatchInfo:
    firstSubMesh: 0
    subMeshCount: 0
  m_StaticBatchRoot: {fileID: 0}
  m_ProbeAnchor: {fileID: 0}
  m_LightProbeVolumeOverride: {fileID: 0}
  m_ScaleInLightmap: 1
  m_ReceiveGI: 1
  m_PreserveUVs: 0
  m_IgnoreNormalsForChartDetection: 0
  m_ImportantGI: 0
  m_StitchLightmapSeams: 0
  m_SelectedEditorRenderState: 3
  m_MinimumChartSize: 4
  m_AutoUVMaxDistance: 0.5
  m_AutoUVMaxAngle: 89
  m_LightmapParameters: {fileID: 0}
  m_SortingLayerID: 0
  m_SortingLayer: 0
  m_SortingOrder: 0
  m_AdditionalVertexStreams: {fileID: 0}
--- !u!65 &2238329832479026227
BoxCollider:
  m_ObjectHideFlags: 0
  m_CorrespondingSourceObject: {fileID: 0}
  m_PrefabInstance: {fileID: 0}
  m_PrefabAsset: {fileID: 0}
  m_GameObject: {fileID: 2240168262919642858}
  m_Material: {fileID: 0}
  m_IsTrigger: 0
  m_Enabled: 1
  serializedVersion: 2
  m_Size: {x: 0.0038586366, y: 0.003829995, z: 0.029950067}
  m_Center: {x: -0.0004964935, y: -0.000509954, z: 0.014975034}
--- !u!114 &2238329832479026188
MonoBehaviour:
  m_ObjectHideFlags: 0
  m_CorrespondingSourceObject: {fileID: 0}
  m_PrefabInstance: {fileID: 0}
  m_PrefabAsset: {fileID: 0}
  m_GameObject: {fileID: 2240168262919642858}
  m_Enabled: 1
  m_EditorHideFlags: 0
  m_Script: {fileID: 11500000, guid: 99b22fe1bf297a243b91e98d634cef1a, type: 3}
  m_Name: 
  m_EditorClassIdentifier: 
